[gd_scene load_steps=5 format=2]

[ext_resource path="res://Animation.gd" type="Script" id=1]

[sub_resource type="Shader" id=1]
code = "shader_type canvas_item;

uniform vec3 uAddColor = vec3(0, 0, 0);
uniform bool uSelected = false;

void fragment() {
	
	COLOR = texture(TEXTURE, UV);
	COLOR.rgb += uAddColor;
	if (uSelected) {
		if (COLOR.a < 1.0) COLOR.rgb = vec3(1);
	}
}
"

[sub_resource type="ShaderMaterial" id=2]
resource_local_to_scene = true
shader = SubResource( 1 )
shader_param/uAddColor = Vector3( 0, 0, 0 )
shader_param/uSelected = false

[sub_resource type="SpriteFrames" id=3]
animations = [  ]

[node name="MetaNode" type="KinematicBody2D"]
position = Vector2( 500, 300 )

[node name="Offset" type="Node2D" parent="."]

[node name="Animation" type="AnimatedSprite" parent="Offset"]
material = SubResource( 2 )
frames = SubResource( 3 )
script = ExtResource( 1 )

[node name="CollisionShape2D" type="CollisionShape2D" parent="."]

[node name="Tween" type="Tween" parent="."]

[connection signal="animation_finished" from="Offset/Animation" to="Offset/Animation" method="_on_Animation_animation_finished"]
